…
``` r
#helper function to generate a vector of countries and their corresponding Slug name whose data are update daily.

countryList <- function(){
  covid <- GET("https://api.covid19api.com/summary")
  covidDF <- fromJSON(rawToChar(covid$content))
  countryList <- covidDF$Countries %>% select(Country, Slug) %>% as_tibble()
  return(countryList)
}
  
countryList <- countryList()
countryList
```

    ## # A tibble: 192 x 2
    ##    Country             Slug               
    ##    <chr>               <chr>              
    ##  1 Afghanistan         afghanistan        
    ##  2 Albania             albania            
    ##  3 Algeria             algeria            
    ##  4 Andorra             andorra            
    ##  5 Angola              angola             
    ##  6 Antigua and Barbuda antigua-and-barbuda
    ##  7 Argentina           argentina          
    ##  8 Armenia             armenia            
    ##  9 Australia           australia          
    ## 10 Austria             austria            
    ## # … with 182 more rows
…
